{
    "label": "Existing Data",
    "value": {
        "button2":"visible",
        "selectOption":"1",
        "search1":"value1",
        "search2":"value2",
        "search3":"value3",
        "buttonDropHidden":"test",
        "urlHidden":"https://google.com",
        "textInput1":"hello world",
        "LocationButton":{"latitude":23}
    }
}